{
  "wcid": 43140,
  "_comment": "Shield of Isin Dule(shieldofthegoldgear)",
  "weenieType": 1,
  "_comment2": "Generic",
  "stringStats": [
    {
      "key": 1,
      "value": "Shield of Isin Dule",
      "_comment": "Name"
    }
  ],
  "intStats": [
    {
      "key": 93,
      "value": 1044,
      "_comment": "PhysicsState = Ethereal_PS, Ignore_Collisions_PS, Gravity_PS"
    },
    {
      "key": 1,
      "value": 2,
      "_comment": "ItemType = Type_Armor"
    },
    {
      "key": 19,
      "value": 50,
      "_comment": "Value"
    },
    {
      "key": 16,
      "value": 1,
      "_comment": "ItemUseable = Useable_No"
    },
    {
      "key": 18,
      "value": 1,
      "_comment": "UiEffects = UI_Effect_Magical"
    },
    {
      "key": 51,
      "value": 4,
      "_comment": "CombatUse = Combat_Use_Shield"
    },
    {
      "key": 9,
      "value": 2097152,
      "_comment": "ValidLocations = Shield_Loc"
    },
    {
      "key": 5,
      "value": 690,
      "_comment": "EncumbranceVal"
    },
    {
      "key": 151,
      "value": 2,
      "_comment": "HookType = Wall_HookTypeEnum"
    },
    {
      "key": 160,
      "value": 140,
      "_comment": "WieldDifficulty"
    },
    {
      "key": 271,
      "value": 48,
      "_comment": "WieldSkilltype2 = Shield"
    },
    {
      "key": 107,
      "value": 3000,
      "_comment": "ItemCurMana"
    },
    {
      "key": 270,
      "value": 1,
      "_comment": "WieldRequirements2 = skill"
    },
    {
      "key": 106,
      "value": 450,
      "_comment": "ItemSpellcraft"
    },
    {
      "key": 28,
      "value": 200,
      "_comment": "ArmorLevel"
    },
    {
      "key": 108,
      "value": 3000,
      "_comment": "ItemMaxMana"
    },
    {
      "key": 158,
      "value": 7,
      "_comment": "WieldRequirements = level"
    },
    {
      "key": 159,
      "value": 1,
      "_comment": "WieldSkilltype = Axe"
    }
  ],
  "boolStats": [
    {
      "key": 22,
      "value": 1,
      "_comment": "Inscribable"
    }
  ],
  "floatStats": [
    {
      "key": 5,
      "value": -0.025,
      "_comment": "ManaRate"
    },
    {
      "key": 13,
      "value": 1.29999995,
      "_comment": "ArmorModVsSlash"
    },
    {
      "key": 14,
      "value": 1.29999995,
      "_comment": "ArmorModVsPierce"
    },
    {
      "key": 15,
      "value": 1.29999995,
      "_comment": "ArmorModVsBludgeon"
    },
    {
      "key": 16,
      "value": 0.80000001,
      "_comment": "ArmorModVsCold"
    },
    {
      "key": 17,
      "value": 1,
      "_comment": "ArmorModVsFire"
    },
    {
      "key": 18,
      "value": 0.80000001,
      "_comment": "ArmorModVsAcid"
    },
    {
      "key": 19,
      "value": 1.20000005,
      "_comment": "ArmorModVsElectric"
    },
    {
      "key": 165,
      "value": 1,
      "_comment": "ArmorModVsNether"
    }
  ],
  "didStats": [
    {
      "key": 3,
      "value": 536870932,
      "_comment": "SoundTable"
    },
    {
      "key": 22,
      "value": 872415275,
      "_comment": "PhysicsEffectTable"
    },
    {
      "key": 1,
      "value": 33559923,
      "_comment": "Setup"
    },
    {
      "key": 8,
      "value": 100688919,
      "_comment": "Icon"
    }
  ],
  "spellbook": [
    {
      "key": 4686,
      "_comment": "Epic Axe Aptitude",
      "value": {
        "casting_likelihood": 2
      }
    },
    {
      "key": 5141,
      "_comment": "Augmented Damage Reduction I",
      "value": {
        "casting_likelihood": 2
      }
    },
    {
      "key": 4667,
      "_comment": "Epic Impenetrability",
      "value": {
        "casting_likelihood": 2
      }
    }
  ]
}